{
  "openapi": "3.0.1",
  "info": {
    "title": "ParrotWings API",
    "version": "v1"
  },
  "paths": {
    "/api/Auth/Register": {
      "post": {
        "tags": [
          "Auth"
        ],
        "operationId": "register",
        "requestBody": {
          "content": {
            "application/json": {
              "schema": {
                "$ref": "#/components/schemas/UserRegistration"
              }
            },
            "text/json": {
              "schema": {
                "$ref": "#/components/schemas/UserRegistration"
              }
            },
            "application/*+json": {
              "schema": {
                "$ref": "#/components/schemas/UserRegistration"
              }
            }
          }
        },
        "responses": {
          "200": {
            "description": "Success",
            "content": {
              "application/json": {
                "schema": {
                  "$ref": "#/components/schemas/ApiResult"
                }
              }
            }
          }
        }
      }
    },
    "/api/Transactions/balance": {
      "get": {
        "tags": [
          "Transactions"
        ],
        "operationId": "Balance",
        "responses": {
          "200": {
            "description": "Success",
            "content": {
              "application/json": {
                "schema": {
                  "type": "number",
                  "format": "double"
                }
              }
            }
          }
        }
      }
    },
    "/api/Transactions/search": {
      "post": {
        "tags": [
          "Transactions"
        ],
        "operationId": "Transactions",
        "requestBody": {
          "content": {
            "application/json": {
              "schema": {
                "$ref": "#/components/schemas/TableFilterModel"
              }
            },
            "text/json": {
              "schema": {
                "$ref": "#/components/schemas/TableFilterModel"
              }
            },
            "application/*+json": {
              "schema": {
                "$ref": "#/components/schemas/TableFilterModel"
              }
            }
          }
        },
        "responses": {
          "200": {
            "description": "Success",
            "content": {
              "application/json": {
                "schema": {
                  "$ref": "#/components/schemas/TransactionSearchResult"
                }
              }
            }
          }
        }
      }
    },
    "/api/Transactions/create": {
      "post": {
        "tags": [
          "Transactions"
        ],
        "operationId": "CreateTransaction",
        "requestBody": {
          "content": {
            "application/json": {
              "schema": {
                "$ref": "#/components/schemas/TransactionRequest"
              }
            },
            "text/json": {
              "schema": {
                "$ref": "#/components/schemas/TransactionRequest"
              }
            },
            "application/*+json": {
              "schema": {
                "$ref": "#/components/schemas/TransactionRequest"
              }
            }
          }
        },
        "responses": {
          "200": {
            "description": "Success",
            "content": {
              "application/json": {
                "schema": {
                  "$ref": "#/components/schemas/ApiResult"
                }
              }
            }
          }
        }
      }
    }
  },
  "components": {
    "schemas": {
      "UserRegistration": {
        "type": "object",
        "properties": {
          "email": {
            "type": "string",
            "nullable": true
          },
          "password": {
            "type": "string",
            "nullable": true
          },
          "confirmPassword": {
            "type": "string",
            "nullable": true
          }
        },
        "additionalProperties": false
      },
      "ApiResult": {
        "type": "object",
        "properties": {
          "successfully": {
            "type": "boolean"
          },
          "text": {
            "type": "string",
            "nullable": true
          },
          "object": {
            "type": "object",
            "additionalProperties": false,
            "nullable": true
          }
        },
        "additionalProperties": false
      },
      "TableFilterContext": {
        "type": "object",
        "properties": {
          "value": {
            "type": "object",
            "additionalProperties": false,
            "nullable": true
          },
          "matchMode": {
            "type": "string",
            "nullable": true
          }
        },
        "additionalProperties": false
      },
      "TableFilterSortMeta": {
        "type": "object",
        "properties": {
          "field": {
            "type": "string",
            "nullable": true
          },
          "order": {
            "type": "integer",
            "format": "int32"
          }
        },
        "additionalProperties": false
      },
      "TableFilterModel": {
        "type": "object",
        "properties": {
          "filters": {
            "type": "object",
            "additionalProperties": {
              "$ref": "#/components/schemas/TableFilterContext"
            },
            "nullable": true
          },
          "first": {
            "type": "integer",
            "format": "int32"
          },
          "rows": {
            "type": "integer",
            "format": "int32"
          },
          "sortField": {
            "type": "string",
            "nullable": true
          },
          "sortOrder": {
            "type": "integer",
            "format": "int32"
          },
          "multiSortMeta": {
            "type": "array",
            "items": {
              "$ref": "#/components/schemas/TableFilterSortMeta"
            },
            "nullable": true
          }
        },
        "additionalProperties": false
      },
      "Transaction": {
        "type": "object",
        "properties": {
          "userId": {
            "type": "integer",
            "format": "int64"
          },
          "correspondentId": {
            "type": "integer",
            "format": "int64"
          },
          "correspondentName": {
            "type": "string",
            "nullable": true
          },
          "amount": {
            "type": "number",
            "format": "double"
          },
          "createdDate": {
            "type": "string",
            "format": "date-time"
          },
          "id": {
            "type": "integer",
            "format": "int64"
          }
        },
        "additionalProperties": false
      },
      "TransactionSearchResult": {
        "type": "object",
        "properties": {
          "transactions": {
            "type": "array",
            "items": {
              "$ref": "#/components/schemas/Transaction"
            },
            "nullable": true
          },
          "totalCount": {
            "type": "integer",
            "format": "int32"
          }
        },
        "additionalProperties": false
      },
      "TransactionRequest": {
        "type": "object",
        "properties": {
          "userEmail": {
            "type": "string",
            "nullable": true
          },
          "amount": {
            "type": "number",
            "format": "double"
          }
        },
        "additionalProperties": false
      }
    },
    "securitySchemes": {
      "oauth2": {
        "type": "oauth2",
        "flows": {
          "password": {
            "tokenUrl": "/connect/token",
            "scopes": {
              "api": "ParrotWings API"
            }
          }
        }
      }
    }
  }
}